{
    "r0": "Normal vision",
    "r1": "Deuteranomaly",
    "r2": "Protanomaly",
    "r3": "Protanopia",
    "r4": "Deuteranopia",
    "r5": "Tritanopia",
    "r6": "Tritanomaly",
    "r7": "Achromatopsia"
}